[
	{
		"year": 1960,
		"name": "John Kennedy",
		"winner": true,
		"cpv": 2.3,
		"party": "democratic"
	},
	{
		"year": 1960,
		"name": "Richard Nixon",
		"winner": false,
		"cpv": 2.4,
		"party": "republican"
	},
	{
		"year": 1964,
		"name": "Lyndon Johnson",
		"winner": true,
		"cpv": 1.6,
		"party": "democratic"
	},
	{
		"year": 1964,
		"name": "Barry Goldwater",
		"winner": false,
		"cpv": 4.6,
		"party": "republican"
	},
	{
		"year": 1968,
		"name": "Richard Nixon",
		"winner": true,
		"cpv": 5.6,
		"party": "republican"
	},
	{
		"year": 1968,
		"name": "Hubert Humphrey",
		"winner": false,
		"cpv": 2.6,
		"party": "democratic"
	},
	{
		"year": 1972,
		"name": "Richard Nixon",
		"winner": true,
		"cpv": 7.5,
		"party": "republican"
	},
	{
		"year": 1972,
		"name": "George McGovern",
		"winner": false,
		"cpv": 5.9,
		"party": "democratic"
	},
	{
		"year": 1976,
		"name": "James Carter",
		"winner": true,
		"cpv": 3.5,
		"party": "democratic"
	},
	{
		"year": 1976,
		"name": "Gerald Ford",
		"winner": false,
		"cpv": 3.9,
		"party": "republican"
	},
	{
		"year": 1980,
		"name": "Ronald Reagan",
		"winner": true,
		"cpv": 3.9,
		"party": "republican"
	},
	{
		"year": 1980,
		"name": "James Carter",
		"winner": false,
		"cpv": 4.1,
		"party": "democratic"
	},
	{
		"year": 1984,
		"name": "Ronald Reagan",
		"winner": true,
		"cpv": 2.9,
		"party": "republican"
	},
	{
		"year": 1984,
		"name": "Walter Mondale",
		"winner": false,
		"cpv": 4.1,
		"party": "democratic"
	},
	{
		"year": 1988,
		"name": "George H. W. Bush",
		"winner": true,
		"cpv": 3.3,
		"party": "republican"
	},
	{
		"year": 1988,
		"name": "Michael Dukakis",
		"winner": false,
		"cpv": 3.8,
		"party": "democratic"
	},
	{
		"year": 1992,
		"name": "William Clinton",
		"winner": true,
		"cpv": 4.1,
		"party": "democratic"
	},
	{
		"year": 1992,
		"name": "George H. W. Bush",
		"winner": false,
		"cpv": 4.3,
		"party": "republican"
	},
	{
		"year": 1996,
		"name": "William Clinton",
		"winner": true,
		"cpv": 3.8,
		"party": "democratic"
	},
	{
		"year": 1996,
		"name": "Bob Dole",
		"winner": false,
		"cpv": 2.6,
		"party": "republican"
	},
	{
		"year": 2000,
		"name": "George W. Bush",
		"winner": true,
		"cpv": 5.2,
		"party": "republican"
	},
	{
		"year": 2000,
		"name": "Al Gore",
		"winner": false,
		"cpv": 3.3,
		"party": "democratic"
	},
	{
		"year": 2004,
		"name": "George W. Bush",
		"winner": true,
		"cpv": 7.3,
		"party": "republican"
	},
	{
		"year": 2004,
		"name": "John Kerry",
		"winner": false,
		"cpv": 7.2,
		"party": "democratic"
	},
	{
		"year": 2008,
		"name": "Barack Obama",
		"winner": true,
		"cpv": 12.6,
		"party": "democratic"
	},
	{
		"year": 2008,
		"name": "John McCain",
		"winner": false,
		"cpv": 7.2,
		"party": "republican"
	},
	{
		"year": 2012,
		"name": "Barack Obama",
		"winner": true,
		"cpv": 11.6,
		"party": "democratic"
	},
	{
		"year": 2012,
		"name": "Mitt Romney",
		"winner": false,
		"cpv": 8.1,
		"party": "republican"
	},
	{
		"year": 2016,
		"name": "Donald Trump",
		"winner": true,
		"cpv": 5.4,
		"party": "republican"
	},
	{
		"year": 2016,
		"name": "Hillary Clinton",
		"winner": false,
		"cpv": 14.5,
		"party": "democratic"
	}
]